841123 21348 525
413533 520280 470
395264 103565 443
553510 79452 470
634469 491040 509
175935 898910 525
146167 862255 525
226174 667232 509
380883 106636 443
441423 282259 449
527456 279570 470
35704 867309 525
802047 736258 468
856847 702139 525
637255 329439 509
460465 680173 509
120233 57016 354
425159 145420 449
447292 472724 444
871562 918886 476
769432 454415 509
385640 972624 525
531654 721772 509
708108 14015 509
675965 834082 504
639575 50725 509
658863 711444 504
924510 340435 525
730399 882992 525
729308 129905 509
427614 375736 449
853197 9207 525
527093 484839 470
240490 358401 441
293332 158115 443
149379 892992 525
566578 952022 525
906732 328342 525
270574 78446 443
598156 42349 470
169418 589316 470
362961 199494 443
531540 913357 525
37201 823666 509
758987 649787 504
6204 977318 525
451588 294545 449
663912 496538 509
222173 86564 386
783089 621865 509
156349 388964 443
433170 164401 449
744407 498789 509
817008 272283 509
278948 873518 525
57535 817726 509
629779 89967 509
876377 929601 476
843689 463228 525
909209 677455 525
115584 145320 375
481090 298260 449
51298 953558 525
936476 773153 525
613188 892075 525
717930 61531 509
526594 707768 509
65673 472373 449
332369 46459 443
404854 554043 470
459598 349389 449
496715 787079 509
217165 104726 386
685863 178177 509
335737 737417 509
248105 284999 407
596675 727765 509
467392 416730 444
836605 282916 509
497310 833952 509
644340 118016 509
278673 719364 509
341890 810611 509
11997 307856 443
969803 639039 525
141366 960585 525
742728 271770 509
926364 747922 525
564052 658576 509
38560 96890 351
66986 777642 509
204496 795343 509
524628 608537 452
705801 334168 509
587505 354970 470
754210 547152 509
265854 77326 443
507831 275631 449
218425 688793 509
726786 25392 509
929733 719484 525
387524 136857 443
831675 71838 509
279051 358436 441
185331 654585 509
462508 182608 449
204564 919299 525
907720 922305 476
99453 326990 443
42310 907761 525
851005 214638 525
402066 711393 509
53862 772090 509
83645 635171 509
753834 612805 509
478127 68320 449
980604 247837 525
623810 73679 470
458265 793796 509
32220 43627 324
370659 21135 443
88878 160996 383
275749 315471 389
889534 964805 507
620047 702821 509
776741 793699 437
929731 439283 525
198972 995016 525
909311 813516 525
933813 941046 507
873031 431951 525
450125 590867 470
461344 357871 449
347545 848321 525
641667 70710 509
791 953051 525
883970 809978 525
489322 652685 509
374304 336405 441
806337 531556 509
149996 183457 383
492800 675179 509
539332 265277 470
556821 638799 509
900956 592833 525
969412 398570 525
658826 728837 504
786748 99725 509
367505 774434 509
531343 678989 509
668252 692399 442
691266 209116 509
125354 851981 525
902276 891859 401
419001 761844 509
172383 873668 525
270593 40079 443
812841 751166 468
157343 212728 373
147343 917058 525
990893 91797 525
423952 29885 449
227161 1835 386
809002 185848 509
411826 873083 525
582457 92884 470
304990 560823 470
940988 283029 525
955626 853692 507
221299 761555 509
648471 258957 509
840731 575984 525
846970 950837 507
416382 771340 509
496683 616936 470
40036 446705 449
998523 75679 525
163263 629559 509
48813 877835 525
457083 52760 449
774833 601780 509
840366 323781 525
638049 803809 504
448687 622034 470
863239 469206 525
448021 358602 449
811784 733622 468
462512 689230 509
298757 938121 525
562096 909043 525
921195 157883 525
129426 147344 375
725676 652477 504
992949 441381 525
959433 389218 525
446863 773754 509
686903 116058 509
695524 470429 509
26950 668606 509
621276 699272 509
613382 306827 470
935829 151627 525
567438 583537 390
872109 955643 507
59116 95390 351
331546 539440 470
427973 395471 449
538977 638573 509
992105 416665 525
751273 157498 509
460288 714615 509
753303 696760 504
146173 870077 525
735372 586620 509
158885 657705 509
276954 75935 443
674201 778623 504
437017 495310 444
482810 46037 449
542893 540995 364
232628 908404 525
605539 603730 372
850911 265678 525
839269 301273 525
714295 220580 509
570490 238309 470
314017 983166 525
97398 599034 470
781082 857742 525
590585 495137 470
421982 18768 449
883181 264767 525
832156 381418 509
22821 967715 525
565239 400681 470
616995 651229 509
28563 560741 470
596554 556900 434
92058 980782 525
632235 688897 442
659995 551397 509
777610 626680 504
27537 496553 449
389878 315579 441
985474 576114 525
602821 896370 525
294516 69467 443
418762 487985 444
513188 851442 525
665483 312541 509
