100 302 128
302 100 128
50 51 25
1000 3400 217
2331 134 183
20394 2804 279
93084 944 351
9013 1408 262
3902 2084 238
1840 2480 209
11111 22222 279
22222 11111 279
290708 224090 443
2084 1084 182
18419 47108 324
4028 1047 238
2849 49718 324
2482 280 209
29224 24800 308
808014 924944 525
2940 2840 217
9103 1841 262
1390 4082 238
42 108 119
1499 4822 238
139 481 144
94 842 171
13 14 18
91 13 116
418 148 144
2 283 128
1 4 8
913 1384 182
842 2489 209
2849 27 209
193 418 144
49 149 122
183 137 125
419 427 59
924 4274 238
813 1479 182
183 1479 182
13080 41791 324
103 2497 209
1379 2479 209
1839 4297 238
1379 841 182
482 2048 182
8193 247 262
8194 4792 262
1849 4297 238
139 283 128
1398 4179 238
194 7419 262
1839 7942 262
924 2498 209
813 1984 182
1489 4197 238
8194 1379 262
1094 972 169
1389 4279 238
318 4207 238
90548 85390 333
7391 1497 262
1380 4972 238
8130 4072 262
1739 1380 180
4081 14008 276
184908 240842 443
275 240 123
138 4179 238
1308 207 182
13080 24709 282
1397 9713 262
19381 14701 279
5380 3579 238
81397 42794 351
13080 14900 276
13800 14804 271
4820 2408 238
103 479 144
1390 5279 238
48180 14940 324
57397 53793 322
543 279 144
9240 4208 262
248979 247249 350
1830 1370 180
90139 13801 351
24793 19914 282
138 480 144
138 137 91
1380 1379 128
1830 4279 238
1893 1379 180
7429 4729 262
183 2469 209
1309 1479 172
1830 2489 209
138038 180833 383
1308 1931 180
193 1479 182
1 313 131
13 42 112
13 2 20
19 918 179
248 429 144
1309 479 182
138 8492 262
18393 13091 279
408 409 41
180 4791 238
18 429 144
183 7539 262
348 79 144
20 57 113
8294 48 262
318 427 144
3189 4972 238
138 4729 238
1308 279 182
13924 24979 282
1380 2972 217
180 2497 209
138 472 144
1028 4279 238
2480 7318 262
891481 811477 525
418 749 171
497305 349799 449
4829 2479 238
824927 249889 509
130080 130833 331
1380 186 182
837914 140810 525
139010 190313 383
1804 2497 209
4082 42759 324
1308 7294 262
3108 2793 217
1830 2749 209
130 7294 262
13803 47291 324
1840 4297 238
1038 4279 238
1308 2408 183
493 4380 238
3108 4792 238
103 4792 238
190 1308 182
3810 2974 238
3108 4297 238
3108 2947 186
1308 2479 209
13901 10481 276
139 202 125
319 464 144
2390 3579 217
13097 24792 282
240 2497 209
130 429 144
130 249 128
1480 4179 238
1830 2497 209
38104 24842 324
130 24 122
13900 42792 324
2084 9752 262
1308 9274 262
249 4279 238
1038 429 179
183 2474 209
10379 18041 279
103847 149717 375
63256 19139 340
1084 4289 238
533747 438044 470
937597 358033 525
385350 537022 470
280422 240822 407
204848 248020 443
408280 240828 441
24842 24821 158
3198 1397 217
1384 2489 209
4801 2479 238
3180 4284 238
831 2794 209
248 4729 238
13 89 116
130 4799 238
8310 4279 262
2804 2479 191
888 444 179
999 111 179
333 999 179
2480 249 209
13999 13838 258
88888 99999 333
8284 8247 190
138088 137900 282
